<?xml version="1.0" encoding="utf-8"?>
<!-- Generator: Adobe Illustrator 17.0.0, SVG Export Plug-In . SVG Version: 6.00 Build 0)  -->
<!DOCTYPE svg PUBLIC "-//W3C//DTD SVG 1.1//EN" "http://www.w3.org/Graphics/SVG/1.1/DTD/svg11.dtd">
<svg version="1.1" id="Layer_1" xmlns="http://www.w3.org/2000/svg" xmlns:xlink="http://www.w3.org/1999/xlink" x="0px" y="0px"
	 width="87.007px" height="86.825px" viewBox="4.736 5.434 87.007 86.825" enable-background="new 4.736 5.434 87.007 86.825"
	 xml:space="preserve">
<path opacity="0.26" fill="#FFFFFF" enable-background="new    " d="M48.148,5.434L91.56,48.846L48.148,92.259L4.736,48.846
	L48.148,5.434z"/>
<circle fill="#FFFFFF" cx="41.348" cy="49.271" r="16.636"/>
<path fill="#0D0D0D" d="M41.348,67.243c-9.897,0-17.972-8.075-17.972-17.972s8.075-17.972,17.972-17.972S59.32,39.375,59.32,49.271
	S51.245,67.243,41.348,67.243z M41.348,33.849c-8.5,0-15.422,6.922-15.422,15.422s6.922,15.422,15.422,15.422
	S56.77,57.772,56.77,49.271S49.848,33.849,41.348,33.849z"/>
<path fill="#0D0D0D" d="M41.348,37.128c-0.364,0-0.729-0.304-0.729-0.729v-2.55c0-0.364,0.304-0.729,0.729-0.729
	c0.364,0,0.729,0.304,0.729,0.729v2.55C42.077,36.825,41.712,37.128,41.348,37.128z"/>
<path fill="#0D0D0D" d="M41.348,65.361c-0.364,0-0.729-0.304-0.729-0.729v-2.55c0-0.364,0.304-0.729,0.729-0.729
	c0.364,0,0.729,0.304,0.729,0.729v2.55C42.077,65.058,41.712,65.361,41.348,65.361z"/>
<path fill="#0D0D0D" d="M57.316,49.939h-2.55c-0.364,0-0.729-0.304-0.729-0.729c0-0.364,0.304-0.729,0.729-0.729h2.55
	c0.364,0,0.729,0.304,0.729,0.729C58.045,49.636,57.681,49.939,57.316,49.939z"/>
<path fill="#0D0D0D" d="M27.808,49.939h-2.55c-0.364,0-0.729-0.304-0.729-0.729c0-0.364,0.304-0.729,0.729-0.729h2.55
	c0.364,0,0.729,0.304,0.729,0.729C28.476,49.636,28.172,49.939,27.808,49.939z"/>
<path fill="#0D0D0D" d="M41.348,51.275c-1.093,0-2.004-0.911-2.004-2.004c0-1.093,0.911-2.004,2.004-2.004
	c1.093,0,2.004,0.911,2.004,2.004C43.352,50.364,42.441,51.275,41.348,51.275z M41.348,48.664c-0.304,0-0.546,0.243-0.546,0.546
	c0,0.304,0.243,0.546,0.546,0.546c0.304,0,0.546-0.243,0.546-0.546C41.894,48.968,41.651,48.664,41.348,48.664z"/>
<path fill="#0D0D0D" d="M41.348,48.664c-0.364,0-0.729-0.304-0.729-0.729V39.01c0-0.364,0.304-0.729,0.729-0.729
	c0.364,0,0.729,0.304,0.729,0.729v8.986C42.077,48.361,41.712,48.664,41.348,48.664z"/>
<path fill="#0D0D0D" d="M49.059,50.546H43.23c-0.729,0-1.275-0.546-1.275-1.275s0.546-1.275,1.275-1.275h5.829
	c0.729,0,1.275,0.546,1.275,1.275S49.727,50.546,49.059,50.546z"/>
<path fill="#EE3624" d="M87.189,39.678l-4.554,4.554c0,0,0.243,2.975,0,5.95c-0.243,3.036-0.729,4.372-0.729,4.372l5.647,5.1
	C87.553,59.654,94.111,47.814,87.189,39.678z"/>
<path fill="#EE3624" d="M53.248,38.889l4.554,4.554c0,0-0.243,2.975,0,5.95c0.243,3.036,0.729,4.372,0.729,4.372l-5.647,5.1
	C52.884,58.865,46.327,47.025,53.248,38.889z"/>
<path fill="#EE3624" d="M80.024,65.543l-4.554-4.554c0,0-2.975,0.243-5.95,0c-2.975-0.243-4.372-0.729-4.372-0.729l-5.1,5.647
	C60.049,65.908,71.888,72.465,80.024,65.543z"/>
<path fill="#EE3624" d="M80.449,32.332l-4.554,4.554c0,0-2.975-0.243-5.95,0c-3.036,0.243-4.372,0.729-4.372,0.729l-5.1-5.647
	C60.474,31.906,72.313,25.349,80.449,32.332z"/>
<polygon fill="#FFFFFF" points="57.498,30.571 52.095,36.582 60.474,44.596 65.817,39.678 "/>
<polygon fill="#FFFFFF" points="80.51,53.279 75.046,59.29 83.424,67.243 88.767,62.386 "/>
<polygon fill="#FFFFFF" points="89.253,36.278 83.364,30.814 75.228,39.071 80.085,44.475 "/>
<polygon fill="#FFFFFF" points="65.938,58.925 60.049,53.4 51.913,61.718 56.77,67.122 "/>
<g>
	<g>
		<path fill="#0D0D0D" d="M67.152,38.16l-8.682-8.682c-0.425-0.425-1.154-0.425-1.579,0l-5.95,5.95
			c-0.425,0.425-0.425,1.154,0,1.579l8.682,8.682c0.182,0.182,0.486,0.304,0.789,0.304c0.304,0,0.607-0.121,0.789-0.304l5.95-5.95
			c0.182-0.182,0.304-0.486,0.304-0.789C67.456,38.646,67.335,38.342,67.152,38.16z M60.352,43.321l-7.104-7.104l1.761-1.761l0,0
			l7.104,7.104l0,0L60.352,43.321z M63.024,40.65l-7.104-7.104l0,0l1.761-1.761l7.104,7.104L63.024,40.65z"/>
		<path fill="#0D0D0D" d="M90.043,60.868l-8.682-8.682c-0.182-0.182-0.486-0.304-0.789-0.304c-0.304,0-0.607,0.121-0.789,0.304
			l-5.95,5.95c-0.425,0.425-0.425,1.154,0,1.579l8.682,8.682c0.243,0.243,0.486,0.304,0.789,0.304s0.546-0.121,0.789-0.304
			l5.95-5.95c0.182-0.182,0.304-0.486,0.304-0.789S90.225,61.05,90.043,60.868z M83.242,66.029l-7.104-7.104l1.761-1.761
			l7.104,7.104L83.242,66.029z M85.914,63.418l-7.104-7.104l1.761-1.761l7.104,7.104L85.914,63.418z"/>
		<path fill="#0D0D0D" d="M90.043,35.428l-5.95-5.95c-0.425-0.425-1.154-0.425-1.579,0l-8.682,8.682
			c-0.425,0.425-0.425,1.154,0,1.579l5.95,5.95c0.182,0.182,0.486,0.304,0.789,0.304c0.304,0,0.607-0.121,0.789-0.304l8.682-8.682
			c0.182-0.182,0.304-0.486,0.304-0.789C90.346,35.914,90.225,35.61,90.043,35.428z M83.242,31.846l1.761,1.761l-7.104,7.043
			l-1.761-1.761L83.242,31.846z M80.571,43.321L78.81,41.56l7.104-7.104l1.761,1.761L80.571,43.321z"/>
		<path fill="#0D0D0D" d="M70.492,37.432c1.214,0,2.429,0.182,3.522,0.546l1.761-1.761c-1.639-0.668-3.461-1.032-5.282-1.032
			c-1.821,0-3.643,0.364-5.282,1.032l1.761,1.761C68.063,37.614,69.277,37.432,70.492,37.432z"/>
		<path fill="#0D0D0D" d="M59.684,30.753l1.639,1.639c2.793-1.518,5.889-2.368,9.168-2.368c3.279,0,6.375,0.789,9.168,2.368
			l1.639-1.639c-3.218-1.882-6.922-2.914-10.808-2.914C66.606,27.778,62.902,28.81,59.684,30.753z"/>
		<path fill="#0D0D0D" d="M81.542,45.325c0.364,1.154,0.546,2.307,0.546,3.522s-0.182,2.429-0.546,3.522l1.761,1.761
			c0.668-1.639,1.032-3.461,1.032-5.282c0-1.821-0.364-3.643-1.032-5.282L81.542,45.325z"/>
		<path fill="#0D0D0D" d="M88.828,38.1l-1.639,1.639c1.518,2.793,2.368,5.889,2.368,9.168c0,3.279-0.789,6.375-2.368,9.168
			l1.639,1.639c1.882-3.218,2.914-6.922,2.914-10.808S90.71,41.318,88.828,38.1z"/>
		<path fill="#0D0D0D" d="M70.431,62.629c1.821,0,3.643-0.364,5.282-1.032l-1.761-1.761c-1.154,0.364-2.307,0.546-3.522,0.546
			c-1.214,0-2.429-0.182-3.522-0.546l-1.761,1.761C66.849,62.265,68.61,62.629,70.431,62.629z"/>
		<path fill="#0D0D0D" d="M70.431,67.851c-3.279,0-6.375-0.789-9.168-2.368l-1.639,1.639c3.218,1.882,6.922,2.914,10.808,2.914
			s7.529-1.032,10.808-2.914l-1.639-1.639C76.806,67.001,73.71,67.851,70.431,67.851z"/>
		<path fill="#0D0D0D" d="M59.381,45.325l-1.761-1.761c-0.668,1.639-1.032,3.461-1.032,5.282s0.364,3.643,1.032,5.282l1.761-1.761
			c-0.364-1.154-0.546-2.307-0.546-3.522C58.834,47.632,59.016,46.478,59.381,45.325z"/>
		<path fill="#0D0D0D" d="M53.734,39.739L52.095,38.1c-1.882,3.218-2.914,6.922-2.914,10.747c0,3.886,1.032,7.529,2.914,10.808
			l1.639-1.639c-1.518-2.793-2.368-5.889-2.368-9.168C51.427,45.628,52.216,42.471,53.734,39.739z"/>
		<path fill="#0D0D0D" d="M67.152,58.136l-5.95-5.95c-0.425-0.425-1.154-0.425-1.579,0l-8.743,8.682
			c-0.425,0.425-0.425,1.154,0,1.579l5.95,5.95c0.182,0.182,0.486,0.304,0.789,0.304s0.607-0.121,0.789-0.304l8.682-8.682
			c0.182-0.182,0.304-0.486,0.304-0.789C67.456,58.622,67.335,58.318,67.152,58.136z M60.352,54.554l1.761,1.761l-7.104,7.104
			l-1.761-1.761L60.352,54.554z M57.681,66.029l-1.761-1.761l7.104-7.104l0,0l1.761,1.761L57.681,66.029z"/>
	</g>
</g>
</svg>
