<?xml version="1.0" encoding="utf-8"?>
<!-- Generator: Adobe Illustrator 17.0.0, SVG Export Plug-In . SVG Version: 6.00 Build 0)  -->
<!DOCTYPE svg PUBLIC "-//W3C//DTD SVG 1.1//EN" "http://www.w3.org/Graphics/SVG/1.1/DTD/svg11.dtd">
<svg version="1.1" id="Слой_1" xmlns="http://www.w3.org/2000/svg" xmlns:xlink="http://www.w3.org/1999/xlink" x="0px" y="0px"
	 width="547px" height="769px" viewBox="-525 -110.5 547 769" enable-background="new -525 -110.5 547 769" xml:space="preserve">
<title>triangles</title>
<desc>Created with Sketch.</desc>
<rect x="-295.927" y="-109.176" fill="#F6BF1A" width="159.926" height="159.926"/>
<circle fill="#FEE011" cx="-441.803" cy="249.523" r="83.197"/>
<g>
	<rect x="-460.737" y="568.76" fill="#F6BF1A" width="39.115" height="89.74"/>
	<rect x="-357.148" y="568.76" fill="#E95E51" width="39.115" height="89.74"/>
	<polygon fill="#FEE011" points="-402.626,568.76 -402.626,658.5 -318.594,658.5 	"/>
	<polygon fill="#F0A31F" points="-356.586,616.671 -356.586,658.5 -318.594,658.5 	"/>
	<circle fill="#FEE011" cx="-257.676" cy="612.928" r="45.197"/>
	<polygon fill="#F6BF1A" points="-214.35,568.76 -164.287,658.126 -113.662,568.76 	"/>
	<polygon fill="#E95E51" points="-143.045,658.313 -92.982,568.947 -42.263,658.313 	"/>
</g>
<g>
	<path d="M-264.373-87.01c0,0.499-0.165,0.901-0.493,1.207c-0.329,0.306-0.765,0.459-1.309,0.459h-10.812
		c0.204,0.975,0.589,1.723,1.156,2.244c0.725,0.839,1.785,1.343,3.179,1.513s2.601-0.107,3.621-0.833
		c0.34-0.362,0.793-0.544,1.36-0.544c0.566,0,0.963,0.147,1.19,0.442c0.634,0.703,0.634,1.44,0,2.21
		c-1.632,1.496-3.633,2.239-6.001,2.227c-2.369-0.011-4.352-0.844-5.95-2.499c-1.598-1.654-2.409-3.649-2.431-5.984
		c0.022-2.334,0.833-4.335,2.431-6.001c1.598-1.666,3.53-2.499,5.797-2.499c2.266,0,4.176,0.743,5.729,2.227
		c1.552,1.485,2.397,3.372,2.533,5.661V-87.01z M-272.567-91.839c-1.315,0.068-2.369,0.476-3.162,1.224
		c-0.793,0.748-1.27,1.542-1.428,2.38h9.622c-0.204-0.793-0.753-1.564-1.649-2.312S-271.207-91.725-272.567-91.839z"/>
	<path d="M-248.41-94.814c0.487-0.079,0.929,0.023,1.326,0.306c0.396,0.284,0.634,0.669,0.714,1.156
		c0.08,0.488-0.028,0.913-0.323,1.275l-4.046,5.576l4.046,5.61c0.294,0.385,0.402,0.828,0.323,1.326
		c-0.08,0.499-0.3,0.873-0.663,1.122c-0.363,0.25-0.76,0.374-1.19,0.374s-0.896-0.249-1.394-0.748l-3.4-4.658l-3.4,4.658
		c-0.431,0.499-0.873,0.748-1.326,0.748c-0.454,0-0.839-0.125-1.156-0.374c-0.386-0.249-0.618-0.629-0.697-1.139
		c-0.08-0.51,0.028-0.946,0.323-1.309l4.08-5.61l-4.08-5.576c-0.295-0.362-0.403-0.788-0.323-1.275
		c0.079-0.487,0.317-0.872,0.714-1.156c0.396-0.283,0.827-0.385,1.292-0.306c0.464,0.08,0.855,0.312,1.173,0.697l3.4,4.556
		l3.4-4.556C-249.3-94.502-248.898-94.734-248.41-94.814z"/>
	<path d="M-236.408-72.237c-0.374,0.374-0.816,0.561-1.326,0.561c-0.51,0-0.947-0.187-1.309-0.561
		c-0.363-0.374-0.544-0.799-0.544-1.275v-19.754c0-0.498,0.175-0.923,0.527-1.275c0.351-0.351,0.771-0.527,1.258-0.527
		s0.907,0.136,1.258,0.408c0.351,0.272,0.561,0.601,0.629,0.986c1.428-0.929,2.969-1.394,4.624-1.394
		c2.266,0,4.204,0.839,5.814,2.516c1.609,1.678,2.414,3.684,2.414,6.018s-0.805,4.324-2.414,5.967
		c-1.61,1.644-3.548,2.465-5.814,2.465c-1.746,0-3.264-0.464-4.556-1.394v5.984C-235.847-73.036-236.034-72.611-236.408-72.237z
		 M-228.095-89.968c-0.884-0.929-1.96-1.394-3.23-1.394s-2.34,0.471-3.213,1.411s-1.309,2.114-1.309,3.519s0.442,2.504,1.326,3.298
		c0.861,0.952,1.921,1.428,3.179,1.428c1.258,0,2.334-0.476,3.23-1.428c0.895-0.952,1.343-2.08,1.343-3.383
		C-226.769-87.82-227.211-88.971-228.095-89.968z"/>
	<path d="M-201.848-87.01c0,0.499-0.165,0.901-0.493,1.207c-0.329,0.306-0.765,0.459-1.309,0.459h-10.812
		c0.204,0.975,0.589,1.723,1.156,2.244c0.725,0.839,1.785,1.343,3.179,1.513s2.601-0.107,3.621-0.833
		c0.34-0.362,0.793-0.544,1.36-0.544c0.566,0,0.963,0.147,1.19,0.442c0.634,0.703,0.634,1.44,0,2.21
		c-1.632,1.496-3.633,2.239-6.001,2.227c-2.369-0.011-4.352-0.844-5.95-2.499c-1.598-1.654-2.409-3.649-2.431-5.984
		c0.022-2.334,0.833-4.335,2.431-6.001c1.598-1.666,3.53-2.499,5.797-2.499c2.266,0,4.176,0.743,5.729,2.227
		c1.552,1.485,2.397,3.372,2.533,5.661V-87.01z M-210.042-91.839c-1.315,0.068-2.369,0.476-3.162,1.224
		c-0.793,0.748-1.27,1.542-1.428,2.38h9.622c-0.204-0.793-0.753-1.564-1.649-2.312S-208.682-91.725-210.042-91.839z"/>
	<path d="M-192.77-93.028c0.521-0.612,1.235-1.105,2.142-1.479c0.906-0.374,1.734-0.555,2.482-0.544
		c0.748,0.012,1.297,0.187,1.649,0.527c0.351,0.34,0.527,0.754,0.527,1.241s-0.176,0.913-0.527,1.275
		c-0.352,0.363-0.777,0.544-1.275,0.544c-2.108,0-3.774,1.712-4.998,5.134v6.46c0,0.499-0.182,0.924-0.544,1.275
		c-0.363,0.352-0.799,0.527-1.309,0.527c-0.51,0-0.941-0.175-1.292-0.527c-0.352-0.351-0.527-0.776-0.527-1.275v-13.396
		c0-0.498,0.175-0.918,0.527-1.258c0.351-0.34,0.782-0.51,1.292-0.51c0.51,0,0.946,0.17,1.309,0.51
		c0.362,0.34,0.544,0.76,0.544,1.258V-93.028z"/>
	<path d="M-177.81-100.032v0.714c0,0.521-0.176,0.964-0.527,1.326c-0.352,0.363-0.782,0.544-1.292,0.544
		c-0.51,0-0.946-0.181-1.309-0.544c-0.363-0.362-0.544-0.805-0.544-1.326v-0.714c0-0.499,0.181-0.929,0.544-1.292
		c0.362-0.362,0.799-0.544,1.309-0.544c0.51,0,0.94,0.176,1.292,0.527C-177.986-100.99-177.81-100.554-177.81-100.032z
		 M-180.955-94.507c0.351-0.351,0.787-0.527,1.309-0.527c0.521,0,0.957,0.176,1.309,0.527c0.352,0.352,0.527,0.799,0.527,1.343
		v13.26c0,0.521-0.176,0.958-0.527,1.309c-0.352,0.352-0.782,0.527-1.292,0.527c-0.51,0-0.946-0.181-1.309-0.544
		c-0.363-0.362-0.544-0.793-0.544-1.292v-13.26C-181.482-93.709-181.307-94.156-180.955-94.507z"/>
	<path d="M-156.662-87.01c0,0.499-0.165,0.901-0.493,1.207c-0.329,0.306-0.765,0.459-1.309,0.459h-10.812
		c0.204,0.975,0.589,1.723,1.156,2.244c0.725,0.839,1.785,1.343,3.179,1.513s2.601-0.107,3.621-0.833
		c0.34-0.362,0.793-0.544,1.36-0.544c0.566,0,0.963,0.147,1.19,0.442c0.634,0.703,0.634,1.44,0,2.21
		c-1.632,1.496-3.633,2.239-6.001,2.227c-2.369-0.011-4.352-0.844-5.95-2.499c-1.598-1.654-2.409-3.649-2.431-5.984
		c0.022-2.334,0.833-4.335,2.431-6.001c1.598-1.666,3.53-2.499,5.797-2.499c2.266,0,4.176,0.743,5.729,2.227
		c1.552,1.485,2.397,3.372,2.533,5.661V-87.01z M-164.856-91.839c-1.315,0.068-2.369,0.476-3.162,1.224
		c-0.793,0.748-1.27,1.542-1.428,2.38h9.622c-0.204-0.793-0.753-1.564-1.649-2.312S-163.496-91.725-164.856-91.839z"/>
	<path d="M-147.585-79.87c0,0.499-0.193,0.924-0.578,1.275c-0.386,0.352-0.822,0.527-1.309,0.527s-0.907-0.175-1.258-0.527
		c-0.352-0.351-0.527-0.776-0.527-1.275v-13.396c0-0.498,0.175-0.923,0.527-1.275c0.351-0.351,0.776-0.527,1.275-0.527
		c0.771,0,1.326,0.352,1.666,1.054c1.11-0.703,2.312-1.054,3.604-1.054c1.972,0,3.649,0.697,5.032,2.091
		c1.382,1.394,2.074,3.055,2.074,4.981v8.126c0,0.499-0.17,0.924-0.51,1.275c-0.34,0.352-0.754,0.527-1.241,0.527
		c-0.488,0-0.913-0.175-1.275-0.527c-0.363-0.351-0.544-0.776-0.544-1.275v-8.126c0-0.952-0.346-1.762-1.037-2.431
		c-0.691-0.668-1.519-1.003-2.482-1.003c-0.964,0-1.774,0.334-2.431,1.003c-0.658,0.669-0.986,1.479-0.986,2.431V-79.87z"/>
	<path d="M-129.055-80.568c-1.7-1.666-2.55-3.666-2.55-6.001c0-2.334,0.85-4.329,2.55-5.984c1.7-1.654,3.729-2.493,6.086-2.516
		c1.972,0,3.774,0.624,5.406,1.87c0.385,0.295,0.612,0.697,0.68,1.207c0.068,0.51-0.051,0.958-0.357,1.343
		c-0.306,0.386-0.703,0.612-1.19,0.68c-0.488,0.068-0.924-0.057-1.309-0.374c-0.998-0.725-2.125-1.088-3.383-1.088
		c-1.258,0-2.386,0.487-3.383,1.462s-1.496,2.12-1.496,3.434s0.493,2.454,1.479,3.417c0.986,0.963,2.113,1.445,3.383,1.445
		c1.269,0,2.402-0.362,3.4-1.088c0.362-0.294,0.793-0.408,1.292-0.34c0.499,0.068,0.901,0.295,1.207,0.68
		c0.306,0.386,0.425,0.822,0.357,1.309c-0.068,0.488-0.295,0.901-0.68,1.241c-1.678,1.202-3.48,1.802-5.406,1.802
		C-125.326-78.068-127.355-78.901-129.055-80.568z"/>
	<path d="M-95.701-87.01c0,0.499-0.165,0.901-0.493,1.207c-0.329,0.306-0.765,0.459-1.309,0.459h-10.812
		c0.204,0.975,0.589,1.723,1.156,2.244c0.725,0.839,1.785,1.343,3.179,1.513s2.601-0.107,3.621-0.833
		c0.34-0.362,0.793-0.544,1.36-0.544c0.566,0,0.963,0.147,1.19,0.442c0.634,0.703,0.634,1.44,0,2.21
		c-1.632,1.496-3.633,2.239-6.001,2.227c-2.369-0.011-4.352-0.844-5.95-2.499c-1.598-1.654-2.409-3.649-2.431-5.984
		c0.022-2.334,0.833-4.335,2.431-6.001c1.598-1.666,3.53-2.499,5.797-2.499c2.266,0,4.176,0.743,5.729,2.227
		c1.552,1.485,2.397,3.372,2.533,5.661V-87.01z M-103.895-91.839c-1.315,0.068-2.369,0.476-3.162,1.224
		c-0.793,0.748-1.27,1.542-1.428,2.38h9.622c-0.204-0.793-0.753-1.564-1.649-2.312S-102.535-91.725-103.895-91.839z"/>
	<path d="M-74.893-79.904c0,0.499-0.182,0.93-0.544,1.292c-0.363,0.363-0.782,0.544-1.258,0.544c-0.476,0-0.879-0.141-1.207-0.425
		c-0.329-0.283-0.539-0.629-0.629-1.037c-1.428,0.975-2.969,1.462-4.624,1.462c-2.29,0-4.239-0.833-5.848-2.499
		c-1.61-1.666-2.414-3.66-2.414-5.984c0-2.323,0.804-4.323,2.414-6.001c1.609-1.677,3.558-2.516,5.848-2.516
		c1.677,0,3.196,0.476,4.556,1.428v-6.392c0-0.499,0.181-0.929,0.544-1.292c0.362-0.362,0.799-0.544,1.309-0.544
		c0.51,0,0.946,0.182,1.309,0.544c0.362,0.363,0.544,0.793,0.544,1.292V-79.904z M-83.155-81.775c1.247,0,2.317-0.47,3.213-1.411
		c0.895-0.94,1.343-2.062,1.343-3.366c0-1.303-0.442-2.431-1.326-3.383c-0.884-0.952-1.961-1.428-3.23-1.428
		s-2.346,0.476-3.23,1.428c-0.884,0.952-1.326,2.08-1.326,3.383c0,1.304,0.447,2.426,1.343,3.366
		C-85.473-82.245-84.402-81.775-83.155-81.775z"/>
	<path d="M-269.167-52.399c0.408,0.272,0.663,0.652,0.765,1.139c0.102,0.488,0.028,0.947-0.221,1.377
		c-0.272,0.408-0.652,0.663-1.139,0.765c-0.488,0.102-0.947,0.006-1.377-0.289c-1.27-0.838-2.318-1.258-3.145-1.258
		c-0.828,0-1.501,0.204-2.023,0.612c-0.363,0.25-0.544,0.471-0.544,0.663c0,0.193,0.028,0.335,0.085,0.425
		c0.057,0.091,0.175,0.193,0.357,0.306c0.499,0.34,1.326,0.612,2.482,0.816l0.034,0.034h0.034c1.201,0.227,2.3,0.567,3.298,1.02
		c0.997,0.454,1.734,1.077,2.21,1.87s0.714,1.576,0.714,2.346c0,1.587-0.714,2.902-2.142,3.944c-1.315,0.907-2.788,1.36-4.42,1.36
		c-2.108-0.022-4.126-0.804-6.052-2.346c-0.363-0.294-0.573-0.697-0.629-1.207c-0.057-0.51,0.073-0.946,0.391-1.309
		c0.294-0.408,0.702-0.634,1.224-0.68c0.521-0.045,0.963,0.091,1.326,0.408c1.224,1.02,2.47,1.519,3.74,1.496
		c0.861,0,1.632-0.215,2.312-0.646c0.408-0.34,0.612-0.629,0.612-0.867c0-0.238-0.034-0.402-0.102-0.493
		c-0.046-0.113-0.193-0.249-0.442-0.408c-0.544-0.385-1.451-0.703-2.72-0.952h-0.034c-1.202-0.227-2.25-0.555-3.145-0.986
		c-0.896-0.43-1.615-1.054-2.159-1.87c-0.386-0.634-0.578-1.349-0.578-2.142c0-1.473,0.668-2.72,2.006-3.74
		c1.224-0.838,2.623-1.258,4.199-1.258C-272.675-54.269-270.98-53.645-269.167-52.399z"/>
	<path d="M-259.766-31.438c-0.374,0.374-0.816,0.561-1.326,0.561c-0.51,0-0.947-0.187-1.309-0.561
		c-0.363-0.374-0.544-0.799-0.544-1.275v-19.754c0-0.498,0.175-0.923,0.527-1.275c0.351-0.351,0.771-0.527,1.258-0.527
		s0.907,0.136,1.258,0.408c0.351,0.272,0.561,0.601,0.629,0.986c1.428-0.929,2.969-1.394,4.624-1.394
		c2.266,0,4.204,0.839,5.814,2.516c1.609,1.678,2.414,3.684,2.414,6.018s-0.805,4.324-2.414,5.967
		c-1.61,1.644-3.548,2.465-5.814,2.465c-1.746,0-3.264-0.464-4.556-1.394v5.984C-259.205-32.236-259.392-31.812-259.766-31.438z
		 M-251.453-49.169c-0.884-0.929-1.96-1.394-3.23-1.394s-2.34,0.471-3.213,1.411s-1.309,2.114-1.309,3.519s0.442,2.504,1.326,3.298
		c0.861,0.952,1.921,1.428,3.179,1.428c1.258,0,2.334-0.476,3.23-1.428c0.895-0.952,1.343-2.08,1.343-3.383
		C-250.127-47.021-250.569-48.171-251.453-49.169z"/>
	<path d="M-225.206-46.211c0,0.499-0.165,0.901-0.493,1.207c-0.329,0.306-0.765,0.459-1.309,0.459h-10.812
		c0.204,0.975,0.589,1.723,1.156,2.244c0.725,0.839,1.785,1.343,3.179,1.513s2.601-0.107,3.621-0.833
		c0.34-0.362,0.793-0.544,1.36-0.544c0.566,0,0.963,0.147,1.19,0.442c0.634,0.703,0.634,1.44,0,2.21
		c-1.632,1.496-3.633,2.239-6.001,2.227c-2.369-0.011-4.352-0.844-5.95-2.499c-1.598-1.654-2.409-3.649-2.431-5.984
		c0.022-2.334,0.833-4.335,2.431-6.001c1.598-1.666,3.53-2.499,5.797-2.499c2.266,0,4.176,0.743,5.729,2.227
		c1.552,1.485,2.397,3.372,2.533,5.661V-46.211z M-233.4-51.039c-1.315,0.068-2.369,0.476-3.162,1.224
		c-0.793,0.748-1.27,1.542-1.428,2.38h9.622c-0.204-0.793-0.753-1.564-1.649-2.312S-232.04-50.925-233.4-51.039z"/>
	<path d="M-218.44-39.768c-1.7-1.666-2.55-3.666-2.55-6.001c0-2.334,0.85-4.329,2.55-5.984c1.7-1.654,3.729-2.493,6.086-2.516
		c1.972,0,3.774,0.624,5.406,1.87c0.385,0.295,0.612,0.697,0.68,1.207c0.068,0.51-0.051,0.958-0.357,1.343
		c-0.306,0.386-0.703,0.612-1.19,0.68c-0.488,0.068-0.924-0.057-1.309-0.374c-0.998-0.725-2.125-1.088-3.383-1.088
		c-1.258,0-2.386,0.487-3.383,1.462s-1.496,2.12-1.496,3.434s0.493,2.454,1.479,3.417c0.986,0.963,2.113,1.445,3.383,1.445
		c1.269,0,2.402-0.362,3.4-1.088c0.362-0.294,0.793-0.408,1.292-0.34c0.499,0.068,0.901,0.295,1.207,0.68
		c0.306,0.386,0.425,0.822,0.357,1.309c-0.068,0.488-0.295,0.901-0.68,1.241c-1.678,1.202-3.48,1.802-5.406,1.802
		C-214.711-37.269-216.739-38.102-218.44-39.768z"/>
	<path d="M-196.679-59.233v0.714c0,0.521-0.176,0.964-0.527,1.326c-0.352,0.363-0.782,0.544-1.292,0.544
		c-0.51,0-0.946-0.181-1.309-0.544c-0.363-0.362-0.544-0.805-0.544-1.326v-0.714c0-0.499,0.181-0.929,0.544-1.292
		c0.362-0.362,0.799-0.544,1.309-0.544c0.51,0,0.94,0.176,1.292,0.527C-196.855-60.19-196.679-59.754-196.679-59.233z
		 M-199.824-53.708c0.351-0.351,0.787-0.527,1.309-0.527c0.521,0,0.957,0.176,1.309,0.527c0.352,0.352,0.527,0.799,0.527,1.343
		v13.26c0,0.521-0.176,0.958-0.527,1.309c-0.352,0.352-0.782,0.527-1.292,0.527c-0.51,0-0.946-0.181-1.309-0.544
		c-0.363-0.362-0.544-0.793-0.544-1.292v-13.26C-200.352-52.909-200.176-53.356-199.824-53.708z"/>
	<path d="M-190.305-39.751c-1.553-1.654-2.329-3.655-2.329-6.001c0-2.346,0.776-4.352,2.329-6.018
		c1.552-1.666,3.473-2.499,5.763-2.499c1.609,0,3.116,0.499,4.522,1.496c0.113-0.43,0.328-0.788,0.646-1.071
		c0.317-0.283,0.708-0.425,1.173-0.425c0.464,0,0.873,0.182,1.224,0.544c0.351,0.363,0.527,0.794,0.527,1.292v13.362
		c0,0.499-0.176,0.924-0.527,1.275c-0.352,0.352-0.76,0.527-1.224,0.527c-0.465,0-0.856-0.136-1.173-0.408
		c-0.318-0.272-0.533-0.623-0.646-1.054c-1.383,0.975-2.89,1.462-4.522,1.462C-186.832-37.269-188.753-38.096-190.305-39.751z
		 M-188.996-45.752c0,1.372,0.413,2.522,1.241,3.451c0.827,0.93,1.893,1.394,3.196,1.394c1.303,0,2.38-0.464,3.23-1.394
		c0.85-0.929,1.275-2.074,1.275-3.434c0-1.36-0.431-2.516-1.292-3.468c-0.862-0.952-1.933-1.428-3.213-1.428
		c-1.281,0-2.341,0.471-3.179,1.411C-188.577-48.279-188.996-47.123-188.996-45.752z"/>
	<path d="M-169.549-59.199c0-0.521,0.181-0.963,0.544-1.326c0.362-0.362,0.805-0.544,1.326-0.544c0.521,0,0.969,0.182,1.343,0.544
		c0.374,0.363,0.561,0.805,0.561,1.326v20.06c0,0.522-0.187,0.964-0.561,1.326c-0.374,0.363-0.822,0.544-1.343,0.544
		c-0.521,0-0.964-0.181-1.326-0.544c-0.363-0.362-0.544-0.804-0.544-1.326V-59.199z"/>
	<path d="M-157.614-59.233v0.714c0,0.521-0.176,0.964-0.527,1.326c-0.352,0.363-0.782,0.544-1.292,0.544
		c-0.51,0-0.946-0.181-1.309-0.544c-0.363-0.362-0.544-0.805-0.544-1.326v-0.714c0-0.499,0.181-0.929,0.544-1.292
		c0.362-0.362,0.799-0.544,1.309-0.544c0.51,0,0.94,0.176,1.292,0.527C-157.79-60.19-157.614-59.754-157.614-59.233z
		 M-160.759-53.708c0.351-0.351,0.787-0.527,1.309-0.527c0.521,0,0.957,0.176,1.309,0.527c0.352,0.352,0.527,0.799,0.527,1.343
		v13.26c0,0.521-0.176,0.958-0.527,1.309c-0.352,0.352-0.782,0.527-1.292,0.527c-0.51,0-0.946-0.181-1.309-0.544
		c-0.363-0.362-0.544-0.793-0.544-1.292v-13.26C-161.287-52.909-161.112-53.356-160.759-53.708z"/>
	<path d="M-141.261-52.399c0.408,0.272,0.663,0.652,0.765,1.139c0.102,0.488,0.028,0.947-0.221,1.377
		c-0.272,0.408-0.652,0.663-1.139,0.765c-0.488,0.102-0.947,0.006-1.377-0.289c-1.27-0.838-2.318-1.258-3.145-1.258
		c-0.828,0-1.501,0.204-2.023,0.612c-0.363,0.25-0.544,0.471-0.544,0.663c0,0.193,0.028,0.335,0.085,0.425
		c0.057,0.091,0.175,0.193,0.357,0.306c0.499,0.34,1.326,0.612,2.482,0.816l0.034,0.034h0.034c1.201,0.227,2.3,0.567,3.298,1.02
		c0.997,0.454,1.734,1.077,2.21,1.87s0.714,1.576,0.714,2.346c0,1.587-0.714,2.902-2.142,3.944c-1.315,0.907-2.788,1.36-4.42,1.36
		c-2.108-0.022-4.126-0.804-6.052-2.346c-0.363-0.294-0.573-0.697-0.629-1.207c-0.057-0.51,0.073-0.946,0.391-1.309
		c0.294-0.408,0.702-0.634,1.224-0.68c0.521-0.045,0.963,0.091,1.326,0.408c1.224,1.02,2.47,1.519,3.74,1.496
		c0.861,0,1.632-0.215,2.312-0.646c0.408-0.34,0.612-0.629,0.612-0.867c0-0.238-0.034-0.402-0.102-0.493
		c-0.046-0.113-0.193-0.249-0.442-0.408c-0.544-0.385-1.451-0.703-2.72-0.952h-0.034c-1.202-0.227-2.25-0.555-3.145-0.986
		c-0.896-0.43-1.615-1.054-2.159-1.87c-0.386-0.634-0.578-1.349-0.578-2.142c0-1.473,0.668-2.72,2.006-3.74
		c1.224-0.838,2.623-1.258,4.199-1.258C-144.769-54.269-143.074-53.645-141.261-52.399z"/>
	<path d="M-129.293-54.269c0.521,0,0.969,0.182,1.343,0.544c0.374,0.363,0.561,0.799,0.561,1.309c0,0.51-0.187,0.952-0.561,1.326
		c-0.374,0.374-0.822,0.561-1.343,0.561h-0.85v9.486c0.521,0,0.963,0.187,1.326,0.561c0.362,0.374,0.544,0.822,0.544,1.343
		c0,0.522-0.182,0.964-0.544,1.326c-0.363,0.363-0.805,0.544-1.326,0.544c-1.043,0-1.933-0.368-2.669-1.105
		c-0.737-0.736-1.105-1.626-1.105-2.669v-9.486h-0.986c-0.521,0-0.963-0.181-1.326-0.544c-0.363-0.362-0.544-0.804-0.544-1.326
		s0.181-0.963,0.544-1.326c0.362-0.362,0.804-0.544,1.326-0.544h0.986v-4.93c0-0.521,0.187-0.963,0.561-1.326
		c0.374-0.362,0.821-0.544,1.343-0.544c0.521,0,0.963,0.182,1.326,0.544c0.362,0.363,0.544,0.805,0.544,1.326v4.93H-129.293z"/>
	<path d="M-110.934-52.399c0.408,0.272,0.663,0.652,0.765,1.139c0.102,0.488,0.028,0.947-0.221,1.377
		c-0.272,0.408-0.652,0.663-1.139,0.765c-0.488,0.102-0.947,0.006-1.377-0.289c-1.27-0.838-2.318-1.258-3.145-1.258
		c-0.828,0-1.501,0.204-2.023,0.612c-0.363,0.25-0.544,0.471-0.544,0.663c0,0.193,0.028,0.335,0.085,0.425
		c0.057,0.091,0.175,0.193,0.357,0.306c0.499,0.34,1.326,0.612,2.482,0.816l0.034,0.034h0.034c1.201,0.227,2.3,0.567,3.298,1.02
		c0.997,0.454,1.734,1.077,2.21,1.87s0.714,1.576,0.714,2.346c0,1.587-0.714,2.902-2.142,3.944c-1.315,0.907-2.788,1.36-4.42,1.36
		c-2.108-0.022-4.126-0.804-6.052-2.346c-0.363-0.294-0.573-0.697-0.629-1.207c-0.057-0.51,0.073-0.946,0.391-1.309
		c0.294-0.408,0.702-0.634,1.224-0.68c0.521-0.045,0.963,0.091,1.326,0.408c1.224,1.02,2.47,1.519,3.74,1.496
		c0.861,0,1.632-0.215,2.312-0.646c0.408-0.34,0.612-0.629,0.612-0.867c0-0.238-0.034-0.402-0.102-0.493
		c-0.046-0.113-0.193-0.249-0.442-0.408c-0.544-0.385-1.451-0.703-2.72-0.952h-0.034c-1.202-0.227-2.25-0.555-3.145-0.986
		c-0.896-0.43-1.615-1.054-2.159-1.87c-0.386-0.634-0.578-1.349-0.578-2.142c0-1.473,0.668-2.72,2.006-3.74
		c1.224-0.838,2.623-1.258,4.199-1.258C-114.442-54.269-112.747-53.645-110.934-52.399z"/>
</g>
<polygon fill="#E95E51" points="-244.258,427.931 -141.949,245.303 -38.3,427.931 "/>
<g>
	<path d="M-260.431,394.616v0.714c0,0.521-0.176,0.964-0.527,1.326c-0.352,0.363-0.782,0.544-1.292,0.544
		c-0.51,0-0.946-0.181-1.309-0.544c-0.363-0.362-0.544-0.805-0.544-1.326v-0.714c0-0.499,0.181-0.929,0.544-1.292
		c0.362-0.362,0.799-0.544,1.309-0.544c0.51,0,0.94,0.176,1.292,0.527C-260.607,393.659-260.431,394.095-260.431,394.616z
		 M-263.576,400.141c0.351-0.351,0.787-0.527,1.309-0.527c0.521,0,0.957,0.176,1.309,0.527c0.352,0.352,0.527,0.799,0.527,1.343
		v13.26c0,0.521-0.176,0.958-0.527,1.309c-0.352,0.352-0.782,0.527-1.292,0.527c-0.51,0-0.946-0.181-1.309-0.544
		c-0.363-0.362-0.544-0.793-0.544-1.292v-13.26C-264.104,400.94-263.928,400.493-263.576,400.141z"/>
	<path d="M-250.912,414.778c0,0.499-0.193,0.924-0.578,1.275c-0.386,0.352-0.822,0.527-1.309,0.527s-0.907-0.175-1.258-0.527
		c-0.352-0.351-0.527-0.776-0.527-1.275v-13.396c0-0.498,0.175-0.923,0.527-1.275c0.351-0.351,0.776-0.527,1.275-0.527
		c0.771,0,1.326,0.352,1.666,1.054c1.11-0.703,2.312-1.054,3.604-1.054c1.972,0,3.649,0.697,5.032,2.091
		c1.382,1.394,2.074,3.055,2.074,4.981v8.126c0,0.499-0.17,0.924-0.51,1.275c-0.34,0.352-0.754,0.527-1.241,0.527
		c-0.488,0-0.913-0.175-1.275-0.527c-0.363-0.351-0.544-0.776-0.544-1.275v-8.126c0-0.952-0.346-1.762-1.037-2.431
		c-0.691-0.668-1.519-1.003-2.482-1.003c-0.964,0-1.774,0.334-2.431,1.003c-0.658,0.669-0.986,1.479-0.986,2.431V414.778z"/>
	<path d="M-230.07,414.778c0,0.499-0.193,0.924-0.578,1.275c-0.386,0.352-0.822,0.527-1.309,0.527s-0.907-0.175-1.258-0.527
		c-0.352-0.351-0.527-0.776-0.527-1.275v-13.396c0-0.498,0.175-0.923,0.527-1.275c0.351-0.351,0.776-0.527,1.275-0.527
		c0.771,0,1.326,0.352,1.666,1.054c1.11-0.703,2.312-1.054,3.604-1.054c1.972,0,3.649,0.697,5.032,2.091
		c1.382,1.394,2.074,3.055,2.074,4.981v8.126c0,0.499-0.17,0.924-0.51,1.275c-0.34,0.352-0.754,0.527-1.241,0.527
		c-0.488,0-0.913-0.175-1.275-0.527c-0.363-0.351-0.544-0.776-0.544-1.275v-8.126c0-0.952-0.346-1.762-1.037-2.431
		c-0.691-0.668-1.519-1.003-2.482-1.003c-0.964,0-1.774,0.334-2.431,1.003c-0.658,0.669-0.986,1.479-0.986,2.431V414.778z"/>
	<path d="M-205.488,416.682c-2.29,0-4.228-0.838-5.814-2.516c-1.586-1.677-2.38-3.683-2.38-6.018c0-2.334,0.799-4.346,2.397-6.035
		c1.598-1.688,3.519-2.533,5.763-2.533s4.153,0.856,5.729,2.567c1.575,1.712,2.363,3.746,2.363,6.103
		c0,2.358-0.793,4.307-2.38,5.848C-201.306,415.821-203.199,416.682-205.488,416.682z M-208.752,404.578
		c-0.816,0.952-1.224,2.131-1.224,3.536s0.408,2.606,1.224,3.604c0.884,0.839,1.949,1.258,3.196,1.258s2.312-0.419,3.196-1.258
		c0.884-0.998,1.326-2.199,1.326-3.604s-0.442-2.584-1.326-3.536c-0.975-0.861-2.04-1.292-3.196-1.292
		C-206.712,403.286-207.778,403.717-208.752,404.578z"/>
	<path d="M-186.142,416.444c-0.386-0.181-0.606-0.334-0.663-0.459c-0.057-0.124-0.097-0.198-0.119-0.221
		c-0.068-0.022-0.125-0.113-0.17-0.272l-5.508-13.192c-0.204-0.454-0.21-0.901-0.017-1.343c0.192-0.442,0.527-0.765,1.003-0.969
		c0.408-0.204,0.838-0.204,1.292,0c0.453,0.204,0.782,0.533,0.986,0.986l3.91,9.248l3.944-9.248
		c0.181-0.453,0.493-0.782,0.935-0.986c0.442-0.204,0.895-0.204,1.36,0c0.464,0.204,0.793,0.527,0.986,0.969
		c0.192,0.442,0.187,0.89-0.017,1.343l-5.576,13.192c-0.046,0.114-0.091,0.193-0.136,0.238c-0.045,0.046-0.091,0.097-0.136,0.153
		c-0.046,0.057-0.119,0.13-0.221,0.221c-0.102,0.091-0.176,0.165-0.221,0.221s-0.102,0.097-0.17,0.119h-0.068v0.034
		c-0.091,0-0.182,0.023-0.272,0.068h-0.068c-0.091,0.023-0.199,0.034-0.323,0.034s-0.232-0.011-0.323-0.034h-0.068
		c-0.136-0.045-0.227-0.068-0.272-0.068v-0.034H-186.142z"/>
	<path d="M-171.336,414.098c-1.553-1.654-2.329-3.655-2.329-6.001c0-2.346,0.776-4.352,2.329-6.018
		c1.552-1.666,3.473-2.499,5.763-2.499c1.609,0,3.116,0.499,4.522,1.496c0.113-0.43,0.328-0.788,0.646-1.071
		c0.317-0.283,0.708-0.425,1.173-0.425c0.464,0,0.873,0.182,1.224,0.544c0.351,0.363,0.527,0.794,0.527,1.292v13.362
		c0,0.499-0.176,0.924-0.527,1.275c-0.352,0.352-0.76,0.527-1.224,0.527c-0.465,0-0.856-0.136-1.173-0.408
		c-0.318-0.272-0.533-0.623-0.646-1.054c-1.383,0.975-2.89,1.462-4.522,1.462C-167.863,416.58-169.784,415.753-171.336,414.098z
		 M-170.027,408.097c0,1.372,0.413,2.522,1.241,3.451c0.827,0.93,1.893,1.394,3.196,1.394c1.303,0,2.38-0.464,3.23-1.394
		c0.85-0.929,1.275-2.074,1.275-3.434c0-1.36-0.431-2.516-1.292-3.468c-0.862-0.952-1.933-1.428-3.213-1.428
		c-1.281,0-2.341,0.471-3.179,1.411C-169.608,405.57-170.027,406.726-170.027,408.097z"/>
	<path d="M-145.071,399.58c0.521,0,0.969,0.182,1.343,0.544c0.374,0.363,0.561,0.799,0.561,1.309c0,0.51-0.187,0.952-0.561,1.326
		s-0.822,0.561-1.343,0.561h-0.85v9.486c0.521,0,0.963,0.187,1.326,0.561c0.362,0.374,0.544,0.822,0.544,1.343
		c0,0.522-0.182,0.964-0.544,1.326c-0.363,0.363-0.805,0.544-1.326,0.544c-1.043,0-1.933-0.368-2.669-1.105
		c-0.737-0.736-1.105-1.626-1.105-2.669v-9.486h-0.986c-0.521,0-0.963-0.181-1.326-0.544c-0.363-0.362-0.544-0.804-0.544-1.326
		s0.181-0.963,0.544-1.326c0.362-0.362,0.804-0.544,1.326-0.544h0.986v-4.93c0-0.521,0.187-0.963,0.561-1.326
		c0.374-0.362,0.821-0.544,1.343-0.544c0.521,0,0.963,0.182,1.326,0.544c0.362,0.363,0.544,0.805,0.544,1.326v4.93H-145.071z"/>
	<path d="M-133.511,394.616v0.714c0,0.521-0.176,0.964-0.527,1.326c-0.352,0.363-0.782,0.544-1.292,0.544
		c-0.51,0-0.946-0.181-1.309-0.544c-0.363-0.362-0.544-0.805-0.544-1.326v-0.714c0-0.499,0.181-0.929,0.544-1.292
		c0.362-0.362,0.799-0.544,1.309-0.544c0.51,0,0.94,0.176,1.292,0.527C-133.687,393.659-133.511,394.095-133.511,394.616z
		 M-136.656,400.141c0.351-0.351,0.787-0.527,1.309-0.527c0.521,0,0.957,0.176,1.309,0.527c0.352,0.352,0.527,0.799,0.527,1.343
		v13.26c0,0.521-0.176,0.958-0.527,1.309c-0.352,0.352-0.782,0.527-1.292,0.527c-0.51,0-0.946-0.181-1.309-0.544
		c-0.363-0.362-0.544-0.793-0.544-1.292v-13.26C-137.184,400.94-137.008,400.493-136.656,400.141z"/>
	<path d="M-122.156,416.444c-0.386-0.181-0.606-0.334-0.663-0.459c-0.057-0.124-0.097-0.198-0.119-0.221
		c-0.068-0.022-0.125-0.113-0.17-0.272l-5.508-13.192c-0.204-0.454-0.21-0.901-0.017-1.343c0.192-0.442,0.527-0.765,1.003-0.969
		c0.408-0.204,0.838-0.204,1.292,0c0.453,0.204,0.782,0.533,0.986,0.986l3.91,9.248l3.944-9.248
		c0.181-0.453,0.493-0.782,0.935-0.986c0.442-0.204,0.895-0.204,1.36,0c0.464,0.204,0.793,0.527,0.986,0.969
		c0.192,0.442,0.187,0.89-0.017,1.343l-5.576,13.192c-0.046,0.114-0.091,0.193-0.136,0.238c-0.045,0.046-0.091,0.097-0.136,0.153
		c-0.046,0.057-0.119,0.13-0.221,0.221c-0.102,0.091-0.176,0.165-0.221,0.221s-0.102,0.097-0.17,0.119h-0.068v0.034
		c-0.091,0-0.182,0.023-0.272,0.068h-0.068c-0.091,0.023-0.199,0.034-0.323,0.034s-0.232-0.011-0.323-0.034h-0.068
		c-0.136-0.045-0.227-0.068-0.272-0.068v-0.034H-122.156z"/>
	<path d="M-92.576,407.638c0,0.499-0.165,0.901-0.493,1.207c-0.329,0.306-0.765,0.459-1.309,0.459h-10.812
		c0.204,0.975,0.589,1.723,1.156,2.244c0.725,0.839,1.785,1.343,3.179,1.513s2.601-0.107,3.621-0.833
		c0.34-0.362,0.793-0.544,1.36-0.544c0.566,0,0.963,0.147,1.19,0.442c0.634,0.703,0.634,1.44,0,2.21
		c-1.632,1.496-3.633,2.239-6.001,2.227c-2.369-0.011-4.352-0.844-5.95-2.499c-1.598-1.654-2.409-3.649-2.431-5.984
		c0.022-2.334,0.833-4.335,2.431-6.001c1.598-1.666,3.53-2.499,5.797-2.499c2.266,0,4.176,0.743,5.729,2.227
		c1.552,1.485,2.397,3.372,2.533,5.661V407.638z M-100.77,402.81c-1.315,0.068-2.369,0.476-3.162,1.224
		c-0.793,0.748-1.27,1.542-1.428,2.38h9.622c-0.204-0.793-0.753-1.564-1.649-2.312S-99.41,402.924-100.77,402.81z"/>
	<path d="M-253.632,442.25c0.408,0.272,0.663,0.652,0.765,1.139c0.102,0.488,0.028,0.947-0.221,1.377
		c-0.272,0.408-0.652,0.663-1.139,0.765c-0.488,0.102-0.947,0.006-1.377-0.289c-1.27-0.838-2.318-1.258-3.145-1.258
		c-0.828,0-1.501,0.204-2.023,0.612c-0.363,0.25-0.544,0.471-0.544,0.663c0,0.193,0.028,0.335,0.085,0.425
		c0.057,0.091,0.175,0.193,0.357,0.306c0.499,0.34,1.326,0.612,2.482,0.816l0.034,0.034h0.034c1.201,0.227,2.3,0.567,3.298,1.02
		c0.997,0.454,1.734,1.077,2.21,1.87s0.714,1.576,0.714,2.346c0,1.587-0.714,2.902-2.142,3.944c-1.315,0.907-2.788,1.36-4.42,1.36
		c-2.108-0.022-4.126-0.804-6.052-2.346c-0.363-0.294-0.573-0.697-0.629-1.207c-0.057-0.51,0.073-0.946,0.391-1.309
		c0.294-0.408,0.702-0.634,1.224-0.68c0.521-0.045,0.963,0.091,1.326,0.408c1.224,1.02,2.47,1.519,3.74,1.496
		c0.861,0,1.632-0.215,2.312-0.646c0.408-0.34,0.612-0.629,0.612-0.867c0-0.238-0.034-0.402-0.102-0.493
		c-0.046-0.113-0.193-0.249-0.442-0.408c-0.544-0.385-1.451-0.703-2.72-0.952h-0.034c-1.202-0.227-2.25-0.555-3.145-0.986
		c-0.896-0.43-1.615-1.054-2.159-1.87c-0.386-0.634-0.578-1.349-0.578-2.142c0-1.473,0.668-2.72,2.006-3.74
		c1.224-0.838,2.623-1.258,4.199-1.258C-257.139,440.38-255.445,441.003-253.632,442.25z"/>
	<path d="M-239.998,457.482c-2.29,0-4.228-0.838-5.814-2.516c-1.586-1.677-2.38-3.683-2.38-6.018c0-2.334,0.799-4.346,2.397-6.035
		c1.598-1.688,3.519-2.533,5.763-2.533s4.153,0.856,5.729,2.567c1.575,1.712,2.363,3.746,2.363,6.103
		c0,2.358-0.793,4.307-2.38,5.848C-235.816,456.621-237.709,457.482-239.998,457.482z M-243.262,445.378
		c-0.816,0.952-1.224,2.131-1.224,3.536s0.408,2.606,1.224,3.604c0.884,0.839,1.949,1.258,3.196,1.258s2.312-0.419,3.196-1.258
		c0.884-0.998,1.326-2.199,1.326-3.604s-0.442-2.584-1.326-3.536c-0.975-0.861-2.04-1.292-3.196-1.292
		C-241.222,444.086-242.288,444.517-243.262,445.378z"/>
	<path d="M-225.922,435.45c0-0.521,0.181-0.963,0.544-1.326c0.362-0.362,0.805-0.544,1.326-0.544c0.521,0,0.969,0.182,1.343,0.544
		c0.374,0.363,0.561,0.805,0.561,1.326v20.06c0,0.522-0.187,0.964-0.561,1.326c-0.374,0.363-0.822,0.544-1.343,0.544
		c-0.521,0-0.964-0.181-1.326-0.544c-0.363-0.362-0.544-0.804-0.544-1.326V435.45z"/>
	<path d="M-203.788,450.308c0,1.927-0.708,3.587-2.125,4.981s-3.094,2.091-5.032,2.091s-3.604-0.691-4.998-2.074
		c-1.394-1.382-2.091-3.048-2.091-4.998v-8.126c0-0.476,0.175-0.895,0.527-1.258c0.351-0.362,0.776-0.544,1.275-0.544
		c0.498,0,0.923,0.182,1.275,0.544c0.351,0.363,0.527,0.782,0.527,1.258v8.126c0,0.975,0.334,1.796,1.003,2.465
		c0.668,0.669,1.49,1.003,2.465,1.003c0.974,0,1.807-0.334,2.499-1.003c0.691-0.668,1.048-1.49,1.071-2.465v-8.126
		c0-0.476,0.17-0.895,0.51-1.258c0.34-0.362,0.753-0.544,1.241-0.544s0.918,0.182,1.292,0.544c0.374,0.363,0.561,0.782,0.561,1.258
		V450.308z"/>
	<path d="M-191.106,440.38c0.521,0,0.969,0.182,1.343,0.544c0.374,0.363,0.561,0.799,0.561,1.309c0,0.51-0.187,0.952-0.561,1.326
		s-0.822,0.561-1.343,0.561h-0.85v9.486c0.521,0,0.963,0.187,1.326,0.561c0.362,0.374,0.544,0.822,0.544,1.343
		c0,0.522-0.182,0.964-0.544,1.326c-0.363,0.363-0.805,0.544-1.326,0.544c-1.043,0-1.933-0.368-2.669-1.105
		c-0.737-0.736-1.105-1.626-1.105-2.669v-9.486h-0.986c-0.521,0-0.963-0.181-1.326-0.544c-0.363-0.362-0.544-0.804-0.544-1.326
		s0.181-0.963,0.544-1.326c0.362-0.362,0.804-0.544,1.326-0.544h0.986v-4.93c0-0.521,0.187-0.963,0.561-1.326
		c0.374-0.362,0.821-0.544,1.343-0.544c0.521,0,0.963,0.182,1.326,0.544c0.362,0.363,0.544,0.805,0.544,1.326v4.93H-191.106z"/>
	<path d="M-179.547,435.416v0.714c0,0.521-0.176,0.964-0.527,1.326c-0.352,0.363-0.782,0.544-1.292,0.544
		c-0.51,0-0.946-0.181-1.309-0.544c-0.363-0.362-0.544-0.805-0.544-1.326v-0.714c0-0.499,0.181-0.929,0.544-1.292
		c0.362-0.362,0.799-0.544,1.309-0.544c0.51,0,0.94,0.176,1.292,0.527C-179.722,434.459-179.547,434.895-179.547,435.416z
		 M-182.692,440.941c0.351-0.351,0.787-0.527,1.309-0.527c0.521,0,0.957,0.176,1.309,0.527c0.352,0.352,0.527,0.799,0.527,1.343
		v13.26c0,0.521-0.176,0.958-0.527,1.309c-0.352,0.352-0.782,0.527-1.292,0.527c-0.51,0-0.946-0.181-1.309-0.544
		c-0.363-0.362-0.544-0.793-0.544-1.292v-13.26C-183.219,441.74-183.044,441.293-182.692,440.941z"/>
	<path d="M-166.287,457.482c-2.29,0-4.228-0.838-5.814-2.516c-1.586-1.677-2.38-3.683-2.38-6.018c0-2.334,0.799-4.346,2.397-6.035
		c1.598-1.688,3.519-2.533,5.763-2.533s4.153,0.856,5.729,2.567c1.575,1.712,2.363,3.746,2.363,6.103
		c0,2.358-0.793,4.307-2.38,5.848C-162.105,456.621-163.998,457.482-166.287,457.482z M-169.551,445.378
		c-0.816,0.952-1.224,2.131-1.224,3.536s0.408,2.606,1.224,3.604c0.884,0.839,1.949,1.258,3.196,1.258s2.312-0.419,3.196-1.258
		c0.884-0.998,1.326-2.199,1.326-3.604s-0.442-2.584-1.326-3.536c-0.975-0.861-2.04-1.292-3.196-1.292
		C-167.511,444.086-168.577,444.517-169.551,445.378z"/>
	<path d="M-148.777,455.578c0,0.499-0.193,0.924-0.578,1.275c-0.386,0.352-0.822,0.527-1.309,0.527s-0.907-0.175-1.258-0.527
		c-0.352-0.351-0.527-0.776-0.527-1.275v-13.396c0-0.498,0.175-0.923,0.527-1.275c0.351-0.351,0.776-0.527,1.275-0.527
		c0.771,0,1.326,0.352,1.666,1.054c1.11-0.703,2.312-1.054,3.604-1.054c1.972,0,3.649,0.697,5.032,2.091
		c1.382,1.394,2.074,3.055,2.074,4.981v8.126c0,0.499-0.17,0.924-0.51,1.275c-0.34,0.352-0.754,0.527-1.241,0.527
		c-0.488,0-0.913-0.175-1.275-0.527c-0.363-0.351-0.544-0.776-0.544-1.275v-8.126c0-0.952-0.346-1.762-1.037-2.431
		c-0.691-0.668-1.519-1.003-2.482-1.003c-0.964,0-1.774,0.334-2.431,1.003c-0.658,0.669-0.986,1.479-0.986,2.431V455.578z"/>
	<path d="M-121.101,442.25c0.408,0.272,0.663,0.652,0.765,1.139c0.102,0.488,0.028,0.947-0.221,1.377
		c-0.272,0.408-0.652,0.663-1.139,0.765c-0.488,0.102-0.947,0.006-1.377-0.289c-1.27-0.838-2.318-1.258-3.145-1.258
		c-0.828,0-1.501,0.204-2.023,0.612c-0.363,0.25-0.544,0.471-0.544,0.663c0,0.193,0.028,0.335,0.085,0.425
		c0.057,0.091,0.175,0.193,0.357,0.306c0.499,0.34,1.326,0.612,2.482,0.816l0.034,0.034h0.034c1.201,0.227,2.3,0.567,3.298,1.02
		c0.997,0.454,1.734,1.077,2.21,1.87s0.714,1.576,0.714,2.346c0,1.587-0.714,2.902-2.142,3.944c-1.315,0.907-2.788,1.36-4.42,1.36
		c-2.108-0.022-4.126-0.804-6.052-2.346c-0.363-0.294-0.573-0.697-0.629-1.207c-0.057-0.51,0.073-0.946,0.391-1.309
		c0.294-0.408,0.702-0.634,1.224-0.68c0.521-0.045,0.963,0.091,1.326,0.408c1.224,1.02,2.47,1.519,3.74,1.496
		c0.861,0,1.632-0.215,2.312-0.646c0.408-0.34,0.612-0.629,0.612-0.867c0-0.238-0.034-0.402-0.102-0.493
		c-0.046-0.113-0.193-0.249-0.442-0.408c-0.544-0.385-1.451-0.703-2.72-0.952h-0.034c-1.202-0.227-2.25-0.555-3.145-0.986
		c-0.896-0.43-1.615-1.054-2.159-1.87c-0.386-0.634-0.578-1.349-0.578-2.142c0-1.473,0.668-2.72,2.006-3.74
		c1.224-0.838,2.623-1.258,4.199-1.258C-124.609,440.38-122.915,441.003-121.101,442.25z"/>
</g>
<g>
	<path d="M-256.06,129.186v-11.12h-11.36c-1.228,0-2.268-0.426-3.12-1.28c-0.854-0.853-1.28-1.88-1.28-3.08
		c0-1.2,0.426-2.24,1.28-3.12c0.853-0.88,1.893-1.32,3.12-1.32h11.36v-11.12c0-1.28,0.44-2.36,1.32-3.24
		c0.88-0.88,1.946-1.32,3.2-1.32c1.252,0,2.333,0.44,3.24,1.32c0.906,0.88,1.36,1.96,1.36,3.24v11.12h11.36
		c1.227,0,2.267,0.44,3.12,1.32c0.853,0.88,1.28,1.92,1.28,3.12c0,1.2-0.427,2.228-1.28,3.08c-0.854,0.854-1.894,1.28-3.12,1.28
		h-11.36v11.12c0,1.28-0.454,2.36-1.36,3.24c-0.908,0.88-1.988,1.319-3.24,1.319c-1.253,0-2.32-0.439-3.2-1.319
		C-255.62,131.547-256.06,130.466-256.06,129.186z"/>
</g>
<g>
	<path d="M-256.06,299.171v-11.12h-11.36c-1.228,0-2.268-0.426-3.12-1.28c-0.854-0.853-1.28-1.88-1.28-3.08
		c0-1.2,0.426-2.24,1.28-3.12c0.853-0.88,1.893-1.32,3.12-1.32h11.36v-11.12c0-1.28,0.44-2.36,1.32-3.24
		c0.88-0.88,1.946-1.32,3.2-1.32c1.252,0,2.333,0.44,3.24,1.32c0.906,0.88,1.36,1.96,1.36,3.24v11.12h11.36
		c1.227,0,2.267,0.44,3.12,1.32c0.853,0.88,1.28,1.92,1.28,3.12c0,1.2-0.427,2.228-1.28,3.08c-0.854,0.854-1.894,1.28-3.12,1.28
		h-11.36v11.12c0,1.279-0.454,2.359-1.36,3.24c-0.908,0.879-1.988,1.319-3.24,1.319c-1.253,0-2.32-0.44-3.2-1.319
		C-255.62,301.53-256.06,300.45-256.06,299.171z"/>
</g>
<g>
	<path d="M-266.84,513.2c-0.91-0.865-1.365-1.928-1.365-3.185c0-1.255,0.455-2.34,1.365-3.25c0.91-0.91,2.015-1.365,3.315-1.365
		h24.18c1.3,0,2.383,0.455,3.25,1.365c0.865,0.91,1.3,1.995,1.3,3.25c0,1.257-0.435,2.32-1.3,3.185c-0.867,0.868-1.95,1.3-3.25,1.3
		h-24.18C-264.825,514.5-265.93,514.067-266.84,513.2z M-266.84,527.824c-0.91-0.909-1.365-2.014-1.365-3.314
		c0-1.3,0.455-2.405,1.365-3.315s2.015-1.365,3.315-1.365h24.18c1.3,0,2.383,0.455,3.25,1.365c0.865,0.91,1.3,2.015,1.3,3.315
		c0,1.301-0.435,2.405-1.3,3.314c-0.867,0.91-1.95,1.365-3.25,1.365h-24.18C-264.825,529.189-265.93,528.734-266.84,527.824z"/>
</g>
<g>
	<path d="M-443.379,115.76c0.521-0.612,1.235-1.105,2.142-1.479c0.906-0.374,1.734-0.555,2.482-0.544
		c0.748,0.012,1.297,0.187,1.649,0.527c0.351,0.34,0.527,0.754,0.527,1.241s-0.176,0.913-0.527,1.275
		c-0.352,0.363-0.777,0.544-1.275,0.544c-2.108,0-3.774,1.712-4.998,5.134v6.46c0,0.499-0.182,0.924-0.544,1.275
		c-0.363,0.352-0.799,0.527-1.309,0.527c-0.51,0-0.941-0.175-1.292-0.527c-0.352-0.351-0.527-0.776-0.527-1.275v-13.396
		c0-0.498,0.175-0.918,0.527-1.258c0.351-0.34,0.782-0.51,1.292-0.51c0.51,0,0.946,0.17,1.309,0.51
		c0.362,0.34,0.544,0.76,0.544,1.258V115.76z"/>
	<path d="M-416.825,121.778c0,0.499-0.165,0.901-0.493,1.207c-0.329,0.306-0.765,0.459-1.309,0.459h-10.812
		c0.204,0.975,0.589,1.723,1.156,2.244c0.725,0.839,1.785,1.343,3.179,1.513s2.601-0.107,3.621-0.833
		c0.34-0.362,0.793-0.544,1.36-0.544c0.566,0,0.963,0.147,1.19,0.442c0.634,0.703,0.634,1.44,0,2.21
		c-1.632,1.496-3.633,2.239-6.001,2.227c-2.369-0.011-4.352-0.844-5.95-2.499c-1.598-1.654-2.409-3.649-2.431-5.984
		c0.022-2.334,0.833-4.335,2.431-6.001c1.598-1.666,3.53-2.499,5.797-2.499c2.266,0,4.176,0.743,5.729,2.227
		c1.552,1.485,2.397,3.372,2.533,5.661V121.778z M-425.019,116.95c-1.315,0.068-2.369,0.476-3.162,1.224
		c-0.793,0.748-1.27,1.542-1.428,2.38h9.622c-0.204-0.793-0.753-1.564-1.649-2.312S-423.659,117.064-425.019,116.95z"/>
	<path d="M-400.913,115.59c0.408,0.272,0.663,0.652,0.765,1.139c0.102,0.488,0.028,0.947-0.221,1.377
		c-0.272,0.408-0.652,0.663-1.139,0.765c-0.488,0.102-0.947,0.006-1.377-0.289c-1.27-0.838-2.318-1.258-3.145-1.258
		c-0.828,0-1.501,0.204-2.023,0.612c-0.363,0.25-0.544,0.471-0.544,0.663c0,0.193,0.028,0.335,0.085,0.425
		c0.057,0.091,0.175,0.193,0.357,0.306c0.499,0.34,1.326,0.612,2.482,0.816l0.034,0.034h0.034c1.201,0.227,2.3,0.567,3.298,1.02
		c0.997,0.454,1.734,1.077,2.21,1.87s0.714,1.576,0.714,2.346c0,1.587-0.714,2.902-2.142,3.944c-1.315,0.907-2.788,1.36-4.42,1.36
		c-2.108-0.022-4.126-0.804-6.052-2.346c-0.363-0.294-0.573-0.697-0.629-1.207c-0.057-0.51,0.073-0.946,0.391-1.309
		c0.294-0.408,0.702-0.634,1.224-0.68c0.521-0.045,0.963,0.091,1.326,0.408c1.224,1.02,2.47,1.519,3.74,1.496
		c0.861,0,1.632-0.215,2.312-0.646c0.408-0.34,0.612-0.629,0.612-0.867c0-0.238-0.034-0.402-0.102-0.493
		c-0.046-0.113-0.193-0.249-0.442-0.408c-0.544-0.385-1.451-0.703-2.72-0.952h-0.034c-1.202-0.227-2.25-0.555-3.145-0.986
		c-0.896-0.43-1.615-1.054-2.159-1.87c-0.386-0.634-0.578-1.349-0.578-2.142c0-1.473,0.668-2.72,2.006-3.74
		c1.224-0.838,2.623-1.258,4.199-1.258C-404.421,113.72-402.727,114.344-400.913,115.59z"/>
	<path d="M-380.786,123.648c0,1.927-0.708,3.587-2.125,4.981s-3.094,2.091-5.032,2.091s-3.604-0.691-4.998-2.074
		c-1.394-1.382-2.091-3.048-2.091-4.998v-8.126c0-0.476,0.175-0.895,0.527-1.258c0.351-0.362,0.776-0.544,1.275-0.544
		c0.498,0,0.923,0.182,1.275,0.544c0.351,0.363,0.527,0.782,0.527,1.258v8.126c0,0.975,0.334,1.796,1.003,2.465
		c0.668,0.669,1.49,1.003,2.465,1.003c0.974,0,1.807-0.334,2.499-1.003c0.691-0.668,1.048-1.49,1.071-2.465v-8.126
		c0-0.476,0.17-0.895,0.51-1.258c0.34-0.362,0.753-0.544,1.241-0.544s0.918,0.182,1.292,0.544c0.374,0.363,0.561,0.782,0.561,1.258
		V123.648z"/>
	<path d="M-373.612,108.79c0-0.521,0.181-0.963,0.544-1.326c0.362-0.362,0.805-0.544,1.326-0.544c0.521,0,0.968,0.182,1.342,0.544
		c0.374,0.363,0.562,0.805,0.562,1.326v20.06c0,0.522-0.188,0.964-0.562,1.326c-0.374,0.363-0.821,0.544-1.342,0.544
		c-0.521,0-0.964-0.181-1.326-0.544c-0.363-0.362-0.544-0.804-0.544-1.326V108.79z"/>
	<path d="M-359.639,113.72c0.521,0,0.969,0.182,1.343,0.544c0.374,0.363,0.562,0.799,0.562,1.309c0,0.51-0.188,0.952-0.562,1.326
		s-0.821,0.561-1.343,0.561h-0.85v9.486c0.521,0,0.963,0.187,1.325,0.561s0.545,0.822,0.545,1.343c0,0.522-0.183,0.964-0.545,1.326
		c-0.362,0.363-0.805,0.544-1.325,0.544c-1.043,0-1.933-0.368-2.669-1.105c-0.737-0.736-1.105-1.626-1.105-2.669v-9.486h-0.986
		c-0.521,0-0.963-0.181-1.325-0.544c-0.363-0.362-0.544-0.804-0.544-1.326s0.181-0.963,0.544-1.326
		c0.362-0.362,0.804-0.544,1.325-0.544h0.986v-4.93c0-0.521,0.188-0.963,0.562-1.326c0.374-0.362,0.821-0.544,1.343-0.544
		c0.521,0,0.963,0.182,1.326,0.544c0.362,0.363,0.544,0.805,0.544,1.326v4.93H-359.639z"/>
	<path d="M-341.278,115.59c0.408,0.272,0.663,0.652,0.765,1.139c0.103,0.488,0.028,0.947-0.221,1.377
		c-0.272,0.408-0.652,0.663-1.139,0.765c-0.488,0.102-0.947,0.006-1.378-0.289c-1.27-0.838-2.317-1.258-3.145-1.258
		c-0.828,0-1.502,0.204-2.023,0.612c-0.362,0.25-0.544,0.471-0.544,0.663c0,0.193,0.028,0.335,0.085,0.425
		c0.057,0.091,0.176,0.193,0.357,0.306c0.498,0.34,1.326,0.612,2.482,0.816l0.033,0.034h0.034c1.201,0.227,2.301,0.567,3.298,1.02
		c0.997,0.454,1.734,1.077,2.21,1.87c0.477,0.793,0.715,1.576,0.715,2.346c0,1.587-0.715,2.902-2.143,3.944
		c-1.314,0.907-2.788,1.36-4.42,1.36c-2.108-0.022-4.126-0.804-6.052-2.346c-0.363-0.294-0.573-0.697-0.629-1.207
		c-0.058-0.51,0.073-0.946,0.391-1.309c0.294-0.408,0.702-0.634,1.224-0.68c0.521-0.045,0.964,0.091,1.326,0.408
		c1.225,1.02,2.471,1.519,3.74,1.496c0.861,0,1.632-0.215,2.313-0.646c0.407-0.34,0.611-0.629,0.611-0.867
		c0-0.238-0.034-0.402-0.102-0.493c-0.046-0.113-0.193-0.249-0.442-0.408c-0.544-0.385-1.451-0.703-2.72-0.952h-0.034
		c-1.201-0.227-2.25-0.555-3.145-0.986c-0.896-0.43-1.615-1.054-2.159-1.87c-0.386-0.634-0.578-1.349-0.578-2.142
		c0-1.473,0.668-2.72,2.006-3.74c1.224-0.838,2.623-1.258,4.199-1.258C-344.786,113.72-343.092,114.344-341.278,115.59z"/>
	<path d="M-431.751,162.578c0,0.499-0.165,0.901-0.493,1.207c-0.329,0.306-0.765,0.459-1.309,0.459h-10.812
		c0.204,0.975,0.589,1.723,1.156,2.244c0.725,0.839,1.785,1.343,3.179,1.513s2.601-0.107,3.621-0.833
		c0.34-0.362,0.793-0.544,1.36-0.544c0.566,0,0.963,0.147,1.19,0.442c0.634,0.703,0.634,1.44,0,2.21
		c-1.632,1.496-3.633,2.239-6.001,2.227c-2.369-0.011-4.352-0.844-5.95-2.499c-1.598-1.654-2.409-3.649-2.431-5.984
		c0.022-2.334,0.833-4.335,2.431-6.001c1.598-1.666,3.53-2.499,5.797-2.499c2.266,0,4.176,0.743,5.729,2.227
		c1.552,1.485,2.397,3.372,2.533,5.661V162.578z M-439.945,157.75c-1.315,0.068-2.369,0.476-3.162,1.224
		c-0.793,0.748-1.27,1.542-1.428,2.38h9.622c-0.204-0.793-0.753-1.564-1.649-2.312S-438.585,157.864-439.945,157.75z"/>
	<path d="M-415.788,154.775c0.487-0.079,0.929,0.023,1.326,0.306c0.396,0.284,0.634,0.669,0.714,1.156
		c0.08,0.488-0.028,0.913-0.323,1.275l-4.046,5.576l4.046,5.61c0.294,0.385,0.402,0.828,0.323,1.326
		c-0.08,0.499-0.3,0.873-0.663,1.122c-0.363,0.25-0.76,0.374-1.19,0.374s-0.896-0.249-1.394-0.748l-3.4-4.658l-3.4,4.658
		c-0.431,0.499-0.873,0.748-1.326,0.748c-0.454,0-0.839-0.125-1.156-0.374c-0.386-0.249-0.618-0.629-0.697-1.139
		c-0.08-0.51,0.028-0.946,0.323-1.309l4.08-5.61l-4.08-5.576c-0.295-0.362-0.403-0.788-0.323-1.275
		c0.079-0.487,0.317-0.872,0.714-1.156c0.396-0.283,0.827-0.385,1.292-0.306c0.464,0.08,0.855,0.312,1.173,0.697l3.4,4.556
		l3.4-4.556C-416.678,155.087-416.276,154.854-415.788,154.775z"/>
	<path d="M-405.606,169.021c-1.7-1.666-2.55-3.666-2.55-6.001c0-2.334,0.85-4.329,2.55-5.984c1.7-1.654,3.729-2.493,6.086-2.516
		c1.972,0,3.774,0.624,5.406,1.87c0.385,0.295,0.612,0.697,0.68,1.207c0.068,0.51-0.051,0.958-0.357,1.343
		c-0.306,0.386-0.703,0.612-1.19,0.68c-0.488,0.068-0.924-0.057-1.309-0.374c-0.998-0.725-2.125-1.088-3.383-1.088
		c-1.258,0-2.386,0.487-3.383,1.462s-1.496,2.12-1.496,3.434s0.493,2.454,1.479,3.417c0.986,0.963,2.113,1.445,3.383,1.445
		c1.269,0,2.402-0.362,3.4-1.088c0.362-0.294,0.793-0.408,1.292-0.34c0.499,0.068,0.901,0.295,1.207,0.68
		c0.306,0.386,0.425,0.822,0.357,1.309c-0.068,0.488-0.295,0.901-0.68,1.241c-1.678,1.202-3.48,1.802-5.406,1.802
		C-401.877,171.52-403.905,170.687-405.606,169.021z"/>
	<path d="M-372.252,162.578c0,0.499-0.165,0.901-0.493,1.207c-0.329,0.306-0.765,0.459-1.309,0.459h-10.812
		c0.204,0.975,0.589,1.723,1.156,2.244c0.725,0.839,1.785,1.343,3.179,1.513s2.601-0.107,3.621-0.833
		c0.34-0.362,0.793-0.544,1.36-0.544c0.566,0,0.963,0.147,1.19,0.442c0.634,0.703,0.634,1.44,0,2.21
		c-1.632,1.496-3.633,2.239-6.001,2.227c-2.369-0.011-4.352-0.844-5.95-2.499c-1.598-1.654-2.409-3.649-2.431-5.984
		c0.022-2.334,0.833-4.335,2.431-6.001c1.598-1.666,3.53-2.499,5.797-2.499c2.266,0,4.176,0.743,5.729,2.227
		c1.552,1.485,2.397,3.372,2.533,5.661V162.578z M-380.445,157.75c-1.315,0.068-2.369,0.476-3.162,1.224
		c-0.793,0.748-1.27,1.542-1.428,2.38h9.622c-0.204-0.793-0.753-1.564-1.649-2.312S-379.086,157.864-380.445,157.75z"/>
	<path d="M-351.546,162.578c0,0.499-0.165,0.901-0.493,1.207c-0.329,0.306-0.765,0.459-1.309,0.459h-10.813
		c0.204,0.975,0.589,1.723,1.156,2.244c0.725,0.839,1.785,1.343,3.179,1.513c1.395,0.17,2.602-0.107,3.621-0.833
		c0.34-0.362,0.793-0.544,1.36-0.544c0.566,0,0.963,0.147,1.189,0.442c0.635,0.703,0.635,1.44,0,2.21
		c-1.632,1.496-3.633,2.239-6.001,2.227c-2.368-0.011-4.352-0.844-5.95-2.499c-1.598-1.654-2.408-3.649-2.431-5.984
		c0.022-2.334,0.833-4.335,2.431-6.001c1.599-1.666,3.53-2.499,5.798-2.499c2.266,0,4.176,0.743,5.729,2.227
		c1.553,1.485,2.397,3.372,2.533,5.661V162.578z M-359.74,157.75c-1.314,0.068-2.369,0.476-3.162,1.224s-1.27,1.542-1.428,2.38
		h9.622c-0.204-0.793-0.754-1.564-1.649-2.312S-358.38,157.864-359.74,157.75z"/>
	<path d="M-330.738,169.684c0,0.499-0.182,0.93-0.544,1.292c-0.362,0.363-0.782,0.544-1.258,0.544s-0.879-0.141-1.207-0.425
		c-0.329-0.283-0.539-0.629-0.629-1.037c-1.428,0.975-2.97,1.462-4.624,1.462c-2.29,0-4.239-0.833-5.848-2.499
		c-1.61-1.666-2.414-3.66-2.414-5.984c0-2.323,0.804-4.323,2.414-6.001c1.608-1.677,3.558-2.516,5.848-2.516
		c1.677,0,3.196,0.476,4.556,1.428v-6.392c0-0.499,0.182-0.929,0.544-1.292c0.362-0.362,0.8-0.544,1.31-0.544
		s0.946,0.182,1.309,0.544c0.362,0.363,0.544,0.793,0.544,1.292V169.684z M-339,167.814c1.246,0,2.317-0.47,3.213-1.411
		c0.896-0.94,1.343-2.062,1.343-3.366c0-1.303-0.441-2.431-1.325-3.383c-0.885-0.952-1.961-1.428-3.23-1.428
		s-2.346,0.476-3.23,1.428c-0.884,0.952-1.325,2.08-1.325,3.383c0,1.304,0.447,2.426,1.343,3.366
		C-341.318,167.344-340.247,167.814-339,167.814z"/>
	<path d="M-319.994,149.556v0.714c0,0.521-0.176,0.964-0.527,1.326c-0.352,0.363-0.782,0.544-1.292,0.544s-0.946-0.181-1.309-0.544
		c-0.363-0.362-0.545-0.805-0.545-1.326v-0.714c0-0.499,0.182-0.929,0.545-1.292c0.362-0.362,0.799-0.544,1.309-0.544
		s0.94,0.176,1.292,0.527C-320.17,148.599-319.994,149.035-319.994,149.556z M-323.14,155.081c0.352-0.351,0.787-0.527,1.31-0.527
		c0.521,0,0.957,0.176,1.309,0.527c0.352,0.352,0.527,0.799,0.527,1.343v13.26c0,0.521-0.176,0.958-0.527,1.309
		c-0.352,0.352-0.782,0.527-1.292,0.527s-0.946-0.181-1.309-0.544c-0.363-0.362-0.545-0.793-0.545-1.292v-13.26
		C-323.667,155.88-323.491,155.433-323.14,155.081z"/>
	<path d="M-310.475,169.718c0,0.499-0.193,0.924-0.578,1.275c-0.386,0.352-0.822,0.527-1.31,0.527s-0.906-0.175-1.258-0.527
		c-0.352-0.351-0.526-0.776-0.526-1.275v-13.396c0-0.498,0.175-0.923,0.526-1.275c0.352-0.351,0.776-0.527,1.275-0.527
		c0.771,0,1.326,0.352,1.666,1.054c1.11-0.703,2.312-1.054,3.604-1.054c1.973,0,3.649,0.697,5.032,2.091s2.074,3.055,2.074,4.981
		v8.126c0,0.499-0.17,0.924-0.51,1.275c-0.34,0.352-0.754,0.527-1.241,0.527c-0.488,0-0.913-0.175-1.275-0.527
		c-0.362-0.351-0.544-0.776-0.544-1.275v-8.126c0-0.952-0.346-1.762-1.037-2.431c-0.691-0.668-1.519-1.003-2.481-1.003
		c-0.964,0-1.774,0.334-2.432,1.003c-0.657,0.669-0.985,1.479-0.985,2.431V169.718z"/>
	<path d="M-292.047,169.072c-1.587-1.632-2.38-3.621-2.38-5.967s0.793-4.363,2.38-6.052c1.586-1.688,3.513-2.533,5.78-2.533
		c1.722,0,3.24,0.476,4.556,1.428c0.09-0.408,0.306-0.748,0.646-1.02c0.341-0.272,0.742-0.408,1.207-0.408s0.873,0.176,1.225,0.527
		c0.351,0.352,0.526,0.777,0.526,1.275v13.124c0,2.244-0.799,4.165-2.396,5.763s-3.52,2.397-5.763,2.397
		c-1.292,0-2.482-0.284-3.57-0.85c-0.454-0.204-0.76-0.55-0.918-1.037c-0.159-0.488-0.125-0.958,0.102-1.411
		c0.227-0.454,0.572-0.76,1.037-0.918c0.465-0.159,0.936-0.136,1.411,0.068c0.589,0.317,1.331,0.476,2.227,0.476
		s1.757-0.346,2.585-1.037c0.827-0.691,1.354-1.558,1.58-2.601c-1.314,0.907-2.799,1.36-4.453,1.36
		C-288.534,171.656-290.461,170.795-292.047,169.072z M-290.755,163.122c0,1.337,0.43,2.482,1.292,3.434
		c0.861,0.952,1.932,1.428,3.213,1.428c1.28,0,2.352-0.464,3.213-1.394c0.861-0.929,1.292-2.085,1.292-3.468
		c0-1.382-0.437-2.555-1.309-3.519c-0.873-0.963-1.933-1.445-3.18-1.445c-1.246,0-2.312,0.493-3.195,1.479
		C-290.314,160.623-290.755,161.785-290.755,163.122z"/>
	<path d="M-431.751,203.378c0,0.499-0.165,0.901-0.493,1.207c-0.329,0.306-0.765,0.459-1.309,0.459h-10.812
		c0.204,0.975,0.589,1.723,1.156,2.244c0.725,0.839,1.785,1.343,3.179,1.513s2.601-0.107,3.621-0.833
		c0.34-0.362,0.793-0.544,1.36-0.544c0.566,0,0.963,0.147,1.19,0.442c0.634,0.703,0.634,1.44,0,2.21
		c-1.632,1.496-3.633,2.239-6.001,2.227c-2.369-0.011-4.352-0.844-5.95-2.499c-1.598-1.654-2.409-3.649-2.431-5.984
		c0.022-2.334,0.833-4.335,2.431-6.001c1.598-1.666,3.53-2.499,5.797-2.499c2.266,0,4.176,0.743,5.729,2.227
		c1.552,1.485,2.397,3.372,2.533,5.661V203.378z M-439.945,198.55c-1.315,0.068-2.369,0.476-3.162,1.224
		c-0.793,0.748-1.27,1.542-1.428,2.38h9.622c-0.204-0.793-0.753-1.564-1.649-2.312S-438.585,198.664-439.945,198.55z"/>
	<path d="M-415.788,195.575c0.487-0.079,0.929,0.023,1.326,0.306c0.396,0.284,0.634,0.669,0.714,1.156
		c0.08,0.488-0.028,0.913-0.323,1.275l-4.046,5.576l4.046,5.61c0.294,0.385,0.402,0.828,0.323,1.326
		c-0.08,0.499-0.3,0.873-0.663,1.122c-0.363,0.25-0.76,0.374-1.19,0.374s-0.896-0.249-1.394-0.748l-3.4-4.658l-3.4,4.658
		c-0.431,0.499-0.873,0.748-1.326,0.748c-0.454,0-0.839-0.125-1.156-0.374c-0.386-0.249-0.618-0.629-0.697-1.139
		c-0.08-0.51,0.028-0.946,0.323-1.309l4.08-5.61l-4.08-5.576c-0.295-0.362-0.403-0.788-0.323-1.275
		c0.079-0.487,0.317-0.872,0.714-1.156c0.396-0.283,0.827-0.385,1.292-0.306c0.464,0.08,0.855,0.312,1.173,0.697l3.4,4.556
		l3.4-4.556C-416.678,195.887-416.276,195.655-415.788,195.575z"/>
	<path d="M-403.787,218.151c-0.374,0.374-0.816,0.561-1.326,0.561c-0.51,0-0.947-0.187-1.309-0.561
		c-0.363-0.374-0.544-0.799-0.544-1.275v-19.754c0-0.498,0.175-0.923,0.527-1.275c0.351-0.351,0.771-0.527,1.258-0.527
		s0.907,0.136,1.258,0.408c0.351,0.272,0.561,0.601,0.629,0.986c1.428-0.929,2.969-1.394,4.624-1.394
		c2.266,0,4.204,0.839,5.814,2.516c1.609,1.678,2.414,3.684,2.414,6.018s-0.805,4.324-2.414,5.967
		c-1.61,1.644-3.548,2.465-5.814,2.465c-1.746,0-3.264-0.464-4.556-1.394v5.984C-403.226,217.352-403.413,217.777-403.787,218.151z
		 M-395.474,200.42c-0.884-0.929-1.96-1.394-3.23-1.394s-2.34,0.471-3.213,1.411s-1.309,2.114-1.309,3.519s0.442,2.504,1.326,3.298
		c0.861,0.952,1.921,1.428,3.179,1.428c1.258,0,2.334-0.476,3.23-1.428c0.895-0.952,1.343-2.08,1.343-3.383
		C-394.148,202.568-394.589,201.418-395.474,200.42z"/>
	<path d="M-369.227,203.378c0,0.499-0.164,0.901-0.492,1.207c-0.329,0.306-0.766,0.459-1.31,0.459h-10.812
		c0.204,0.975,0.589,1.723,1.156,2.244c0.725,0.839,1.785,1.343,3.179,1.513s2.601-0.107,3.621-0.833
		c0.34-0.362,0.793-0.544,1.36-0.544c0.566,0,0.963,0.147,1.19,0.442c0.634,0.703,0.634,1.44,0,2.21
		c-1.632,1.496-3.633,2.239-6.001,2.227c-2.369-0.011-4.352-0.844-5.95-2.499c-1.598-1.654-2.409-3.649-2.431-5.984
		c0.022-2.334,0.833-4.335,2.431-6.001c1.598-1.666,3.53-2.499,5.797-2.499c2.266,0,4.176,0.743,5.729,2.227
		c1.552,1.485,2.396,3.372,2.532,5.661V203.378z M-377.42,198.55c-1.315,0.068-2.369,0.476-3.162,1.224
		c-0.793,0.748-1.27,1.542-1.428,2.38h9.622c-0.204-0.793-0.753-1.564-1.649-2.312S-376.06,198.664-377.42,198.55z"/>
	<path d="M-362.46,209.821c-1.7-1.666-2.55-3.666-2.55-6.001c0-2.334,0.85-4.329,2.55-5.984c1.7-1.654,3.729-2.493,6.086-2.516
		c1.972,0,3.773,0.624,5.406,1.87c0.385,0.295,0.611,0.697,0.68,1.207c0.068,0.51-0.051,0.958-0.357,1.343
		c-0.306,0.386-0.702,0.612-1.189,0.68c-0.488,0.068-0.924-0.057-1.31-0.374c-0.997-0.725-2.125-1.088-3.383-1.088
		s-2.386,0.487-3.383,1.462c-0.998,0.975-1.496,2.12-1.496,3.434s0.493,2.454,1.479,3.417c0.985,0.963,2.113,1.445,3.383,1.445
		c1.269,0,2.402-0.362,3.399-1.088c0.362-0.294,0.794-0.408,1.292-0.34c0.499,0.068,0.901,0.295,1.207,0.68
		c0.307,0.386,0.426,0.822,0.357,1.309c-0.068,0.488-0.295,0.901-0.68,1.241c-1.678,1.202-3.48,1.802-5.406,1.802
		C-358.732,212.32-360.76,211.487-362.46,209.821z"/>
	<path d="M-338.66,195.32c0.521,0,0.969,0.182,1.343,0.544c0.374,0.363,0.562,0.799,0.562,1.309c0,0.51-0.188,0.952-0.562,1.326
		s-0.821,0.561-1.343,0.561h-0.85v9.486c0.521,0,0.963,0.187,1.325,0.561s0.545,0.822,0.545,1.343c0,0.522-0.183,0.964-0.545,1.326
		c-0.362,0.363-0.805,0.544-1.325,0.544c-1.043,0-1.933-0.368-2.669-1.105c-0.737-0.736-1.105-1.626-1.105-2.669v-9.486h-0.986
		c-0.521,0-0.963-0.181-1.325-0.544c-0.363-0.362-0.544-0.804-0.544-1.326s0.181-0.963,0.544-1.326
		c0.362-0.362,0.804-0.544,1.325-0.544h0.986v-4.93c0-0.521,0.188-0.963,0.562-1.326c0.374-0.362,0.821-0.544,1.343-0.544
		c0.521,0,0.963,0.182,1.326,0.544c0.362,0.363,0.544,0.805,0.544,1.326v4.93H-338.66z"/>
	<path d="M-330.279,209.838c-1.553-1.654-2.329-3.655-2.329-6.001c0-2.346,0.776-4.352,2.329-6.018
		c1.552-1.666,3.473-2.499,5.763-2.499c1.609,0,3.116,0.499,4.522,1.496c0.112-0.43,0.328-0.788,0.646-1.071
		c0.317-0.283,0.708-0.425,1.173-0.425s0.873,0.182,1.225,0.544c0.351,0.363,0.526,0.794,0.526,1.292v13.362
		c0,0.499-0.176,0.924-0.526,1.275c-0.352,0.352-0.76,0.527-1.225,0.527s-0.855-0.136-1.173-0.408s-0.533-0.623-0.646-1.054
		c-1.383,0.975-2.891,1.462-4.522,1.462C-326.807,212.32-328.728,211.493-330.279,209.838z M-328.971,203.837
		c0,1.372,0.413,2.522,1.241,3.451c0.827,0.93,1.893,1.394,3.196,1.394c1.303,0,2.38-0.464,3.229-1.394
		c0.851-0.929,1.275-2.074,1.275-3.434c0-1.36-0.431-2.516-1.292-3.468c-0.862-0.952-1.933-1.428-3.213-1.428
		c-1.281,0-2.341,0.471-3.18,1.411C-328.552,201.31-328.971,202.466-328.971,203.837z"/>
	<path d="M-304.015,195.32c0.521,0,0.969,0.182,1.343,0.544c0.374,0.363,0.561,0.799,0.561,1.309c0,0.51-0.187,0.952-0.561,1.326
		s-0.822,0.561-1.343,0.561h-0.851v9.486c0.521,0,0.963,0.187,1.326,0.561c0.362,0.374,0.544,0.822,0.544,1.343
		c0,0.522-0.182,0.964-0.544,1.326c-0.363,0.363-0.805,0.544-1.326,0.544c-1.043,0-1.933-0.368-2.669-1.105
		c-0.736-0.736-1.104-1.626-1.104-2.669v-9.486h-0.986c-0.521,0-0.964-0.181-1.326-0.544c-0.362-0.362-0.544-0.804-0.544-1.326
		s0.182-0.963,0.544-1.326c0.362-0.362,0.805-0.544,1.326-0.544h0.986v-4.93c0-0.521,0.187-0.963,0.561-1.326
		c0.374-0.362,0.821-0.544,1.343-0.544s0.964,0.182,1.326,0.544c0.362,0.363,0.544,0.805,0.544,1.326v4.93H-304.015z"/>
	<path d="M-292.455,190.356v0.714c0,0.521-0.176,0.964-0.527,1.326c-0.352,0.363-0.781,0.544-1.292,0.544
		c-0.51,0-0.946-0.181-1.309-0.544c-0.363-0.362-0.544-0.805-0.544-1.326v-0.714c0-0.499,0.181-0.929,0.544-1.292
		c0.362-0.362,0.799-0.544,1.309-0.544c0.511,0,0.94,0.176,1.292,0.527C-292.631,189.399-292.455,189.835-292.455,190.356z
		 M-295.6,195.881c0.351-0.351,0.787-0.527,1.309-0.527s0.957,0.176,1.309,0.527c0.352,0.352,0.527,0.799,0.527,1.343v13.26
		c0,0.521-0.176,0.958-0.527,1.309c-0.352,0.352-0.781,0.527-1.292,0.527c-0.51,0-0.946-0.181-1.309-0.544
		c-0.363-0.362-0.544-0.793-0.544-1.292v-13.26C-296.127,196.68-295.952,196.233-295.6,195.881z"/>
	<path d="M-279.195,212.422c-2.29,0-4.228-0.838-5.814-2.516c-1.586-1.677-2.38-3.683-2.38-6.018c0-2.334,0.8-4.346,2.397-6.035
		s3.519-2.533,5.763-2.533s4.153,0.856,5.729,2.567c1.575,1.712,2.362,3.746,2.362,6.103c0,2.358-0.793,4.307-2.38,5.848
		C-275.014,211.561-276.906,212.422-279.195,212.422z M-282.459,200.318c-0.816,0.952-1.225,2.131-1.225,3.536
		s0.408,2.606,1.225,3.604c0.884,0.839,1.949,1.258,3.195,1.258c1.247,0,2.313-0.419,3.196-1.258
		c0.884-0.998,1.326-2.199,1.326-3.604s-0.442-2.584-1.326-3.536c-0.975-0.861-2.04-1.292-3.196-1.292
		C-280.419,199.026-281.485,199.457-282.459,200.318z"/>
	<path d="M-261.686,210.518c0,0.499-0.192,0.924-0.578,1.275c-0.386,0.352-0.821,0.527-1.309,0.527s-0.907-0.175-1.258-0.527
		c-0.352-0.351-0.527-0.776-0.527-1.275v-13.396c0-0.498,0.176-0.923,0.527-1.275c0.351-0.351,0.776-0.527,1.274-0.527
		c0.771,0,1.326,0.352,1.666,1.054c1.11-0.703,2.313-1.054,3.604-1.054c1.972,0,3.649,0.697,5.032,2.091
		c1.382,1.394,2.073,3.055,2.073,4.981v8.126c0,0.499-0.17,0.924-0.51,1.275c-0.34,0.352-0.754,0.527-1.241,0.527
		s-0.912-0.175-1.274-0.527c-0.363-0.351-0.544-0.776-0.544-1.275v-8.126c0-0.952-0.346-1.762-1.037-2.431
		c-0.691-0.668-1.519-1.003-2.482-1.003s-1.773,0.334-2.431,1.003c-0.658,0.669-0.986,1.479-0.986,2.431V210.518z"/>
</g>
</svg>
